Perform sensitivity analysis on a risk-adjusted regression — sens • rar
…
# Generate some data
set.seed(1)
df <- tibble::tibble(
  group = factor(
    sample(c("a", "b"), 1000, replace = TRUE),
    levels = c("a", "b")
  ),
  p = runif(1000)^2,
  frisked = runif(1000) < p + 0.1 * (group != "a")
)

# Compute the sensitivity analysis
sens(df, group, frisked, p, "a", 0.1)
#> # A tibble: 101 × 3
#>    epsilon beta_min_b beta_max_b
#>      <dbl>      <dbl>      <dbl>
#>  1   0          0.102      0.102
#>  2   0.001      0.102      0.102
#>  3   0.002      0.102      0.102
#>  4   0.003      0.101      0.102
#>  5   0.004      0.101      0.103
#>  6   0.005      0.101      0.103
#>  7   0.006      0.101      0.103
#>  8   0.007      0.101      0.103
#>  9   0.008      0.101      0.103
#> 10   0.009      0.100      0.103
#> # ℹ 91 more rows

# Search over a finer grid
sens(df, group, frisked, p, "a", 0.1, eta = 0.001)
#> # A tibble: 101 × 3
#>    epsilon beta_min_b beta_max_b
#>      <dbl>      <dbl>      <dbl>
#>  1   0         0.102       0.102
#>  2   0.001     0.0995      0.104
#>  3   0.002     0.0972      0.106
#>  4   0.003     0.0948      0.108
#>  5   0.004     0.0924      0.110
#>  6   0.005     0.0900      0.112
#>  7   0.006     0.0876      0.114
#>  8   0.007     0.0851      0.116
#>  9   0.008     0.0827      0.119
#> 10   0.009     0.0802      0.121
#> # ℹ 91 more rows

# Increase the accuracy of the maximization approximation
sens(df, group, frisked, p, "a", 0.1, m = 1001)
#> # A tibble: 1,001 × 3
#>    epsilon beta_min_b beta_max_b
#>      <dbl>      <dbl>      <dbl>
#>  1  0           0.102      0.102
#>  2  0.0001      0.102      0.102
#>  3  0.0002      0.102      0.102
#>  4  0.0003      0.102      0.102
#>  5  0.0004      0.102      0.102
#>  6  0.0005      0.102      0.102
#>  7  0.0006      0.102      0.102
#>  8  0.0007      0.102      0.102
#>  9  0.0008      0.102      0.102
#> 10  0.0009      0.102      0.102
#> # ℹ 991 more rows

# \donttest{
# Calculate 90% pointwise confidence intervals
sens(df, group, frisked, p, "a", 0.1, N = 1000, alpha = 0.1)
#> Resamples ■■■■■                             13% |  ETA: 13s
#> Resamples ■■■■■■■■■■■                       32% |  ETA: 10s
#> Resamples ■■■■■■■■■■■■■■■■                  51% |  ETA:  8s
#> Resamples ■■■■■■■■■■■■■■■■■■■■■■■           72% |  ETA:  4s
#> Resamples ■■■■■■■■■■■■■■■■■■■■■■■■■■■■■     93% |  ETA:  1s
#> # A tibble: 101 × 7
#>    epsilon beta_min_b_05.0 beta_min_b_95.0 beta_max_b_05.0 beta_max_b_95.0
#>      <dbl>           <dbl>           <dbl>           <dbl>           <dbl>
#>  1   0              0.0767           0.126          0.0767           0.126
#>  2   0.001          0.0762           0.126          0.0768           0.126
#>  3   0.002          0.0758           0.126          0.0770           0.126
#>  4   0.003          0.0754           0.126          0.0772           0.126
#>  5   0.004          0.0750           0.126          0.0774           0.126
#>  6   0.005          0.0746           0.126          0.0776           0.127
#>  7   0.006          0.0742           0.126          0.0778           0.127
#>  8   0.007          0.0738           0.126          0.0779           0.127
#>  9   0.008          0.0735           0.126          0.0781           0.127
#> 10   0.009          0.0731           0.126          0.0783           0.127
#> # ℹ 91 more rows
#> # ℹ 2 more variables: beta_min_b <dbl>, beta_max_b <dbl>

# Run in parallel, adjusting the chunk size to avoid blocking
sens(df, group, frisked, p, "a", 0.1,
  n_threads = 4, eta = 0.0001,
  chunk_size = 1000
)
#> # A tibble: 101 × 3
#>    epsilon beta_min_b beta_max_b
#>      <dbl>      <dbl>      <dbl>
#>  1   0         0.102       0.102
#>  2   0.001     0.0995      0.104
#>  3   0.002     0.0972      0.106
#>  4   0.003     0.0948      0.108
#>  5   0.004     0.0924      0.111
#>  6   0.005     0.0900      0.113
#>  7   0.006     0.0876      0.115
#>  8   0.007     0.0851      0.116
#>  9   0.008     0.0827      0.119
#> 10   0.009     0.0802      0.121
#> # ℹ 91 more rows
…
